[gd_scene load_steps=2 format=2]

[ext_resource path="res://src/Intros/IntroOne.gd" type="Script" id=1]

[node name="Intro" type="Control"]
anchor_right = 1.0
anchor_bottom = 1.0
margin_left = 8.0
margin_top = 8.0
script = ExtResource( 1 )
__meta__ = {
"_edit_use_anchors_": false
}

[node name="IntroText" type="RichTextLabel" parent="."]
margin_right = 1018.0
margin_bottom = 477.0
text = "It's year 1650."

[node name="Continue" type="Button" parent="."]
margin_left = 481.053
margin_top = 435.55
margin_right = 550.053
margin_bottom = 455.55
text = "Continue"
__meta__ = {
"_edit_use_anchors_": false
}
